Name,Country,Sex,BirthYear,Division,WeightClassKg,BodyweightKg,Squat1Kg,Squat2Kg,Squat3Kg,Best3SquatKg,Bench1Kg,Bench2Kg,Bench3Kg,Best3BenchKg,Deadlift1Kg,Deadlift2Kg,Deadlift3Kg,Best3DeadliftKg,TotalKg,Place,Event,Equipment,BirthDate
Gabriela Blajer,Poland,F,2000,Juniors,57,56.74,135,140,-142.5,140,70,72.5,-75,72.5,155,-165,-165,155,367.5,10,SBD,Raw,
Wiktoria Pieniążek,Poland,F,2000,Juniors,63,62.76,140,147.5,-150,147.5,62.5,-67.5,-67.5,62.5,145,152.5,-160,152.5,362.5,12,SBD,Raw,
Clara Isabelle Häberer,Germany,F,2000,Juniors,63,62.02,167.5,175,-177.5,175,97.5,-102.5,102.5,102.5,182.5,192.5,200,200,477.5,2,SBD,Raw,
Sonia Amoros Bru,Spain,F,2000,Juniors,52,51.3,97.5,105,112.5,112.5,57.5,62.5,-67.5,62.5,150,157.5,-165,157.5,332.5,6,SBD,Raw,
Cosmiana Montanaro,Italy,F,2000,Juniors,52,51.5,137.5,142.5,145,145,67.5,70,72.5,72.5,165,172.5,177.5,177.5,395,2,SBD,Raw,
Ida-Therese Lindeberg,Sweden,F,2000,Juniors,57,56.36,145,-150,-150,145,85,87.5,90,90,180,185,-195,185,420,3,SBD,Raw,
Isidora Radenkovic,Serbia,F,2000,Juniors,63,60.92,120,-127.5,127.5,127.5,70,75,77.5,77.5,160,167.5,-175,167.5,372.5,10,SBD,Raw,
Camilla Salvarani,Italy,F,2000,Juniors,84,83.98,165,175,182.5,182.5,87.5,92.5,95,95,162.5,177.5,187.5,187.5,465,3,SBD,Raw,
Silvia Stella Mazzaraco,Italy,F,2000,Juniors,52,51.28,137.5,-142.5,-145,137.5,67.5,-72.5,-72.5,67.5,140,150,157.5,157.5,362.5,3,SBD,Raw,
Salma Mmadi Ali,France,F,2000,Juniors,84+,124.68,192.5,202.5,-207.5,202.5,80,95,-100,95,177.5,190,-200,190,487.5,2,SBD,Raw,
Catriona Connolly,Ireland,F,2000,Juniors,76,70.44,122.5,130,137.5,137.5,82.5,87.5,-90,87.5,182.5,-192.5,-192.5,182.5,407.5,11,SBD,Raw,
Tatjana Vugrinec,Croatia,F,2000,Juniors,52,51.08,107.5,115,122.5,122.5,52.5,57.5,60,60,140,147.5,-157.5,147.5,330,7,SBD,Raw,
Femke Ploeg,Netherlands,F,2000,Juniors,76,75.26,167.5,175,180,180,90,95,-97.5,95,190,200,-205,200,475,2,SBD,Raw,
Ludivine Delos,France,F,2000,Juniors,63,62.84,-180,180,-185.5,180,97.5,-102.5,102.5,102.5,200,207.5,-216.5,207.5,490,1,SBD,Raw,
Agnes Rudin,Sweden,F,2000,Juniors,76,75.34,180,190,200,200,107.5,112.5,117.5,117.5,185,197.5,210,210,527.5,1,SBD,Raw,
Naomi James,UK,F,2000,Juniors,76,75.68,155,165,172.5,172.5,80,85,87.5,87.5,190,200,207.5,207.5,467.5,4,SBD,Raw,
Ava Foley,Ireland,F,2000,Juniors,76,73.84,142.5,152.5,-157.5,152.5,85,90,92.5,92.5,155,167.5,177.5,177.5,422.5,8,SBD,Raw,
Melina Irawo,UK,F,2000,Juniors,84,83,175,-185,185,185,112.5,120,125,125,202.5,212.5,-225,212.5,522.5,1,SBD,Raw,
Jenser Mejia Sanchez,Spain,F,2000,Juniors,84,82.62,120,127.5,-137.5,127.5,85,92.5,-97.5,92.5,135,145,160,160,380,6,SBD,Raw,
Danae Kazantzidi,Greece,F,2000,Juniors,52,51.84,110,115,-117.5,115,60,62.5,-65,62.5,130,135,-140,135,312.5,9,SBD,Raw,
Ema Sinead Zammit,Malta,F,2000,Juniors,69,65.9,100,110,112.5,112.5,50,52.5,55,55,125,132.5,140,140,307.5,21,SBD,Raw,
Camille Hadrys,France,F,2000,Juniors,52,51.84,142.5,150,155,155,85,90,92.5,92.5,167.5,-177.5,-182.5,167.5,415,1,SBD,Raw,
Sara Blahova,Slovakia,F,2000,Juniors,63,62.66,130,137.5,145,145,85,90,-92.5,90,162.5,175,185,185,420,6,SBD,Raw,
Jana Dutordoir,Belgium,F,2000,Juniors,63,60.8,137.5,145,150,150,70,72.5,-75,72.5,162.5,172.5,-177.5,172.5,395,8,SBD,Raw,
Grace Allinson,UK,F,2000,Juniors,63,62.46,-135,-135,-135,,-85,-85,-85,,-177.5,-192.5,-200,,,DQ,SBD,Raw,
Nuša Železnik,Slovenia,F,2000,Juniors,76,75.66,170,180,185,185,95,100,102.5,102.5,175,187.5,-192.5,187.5,475,3,SBD,Raw,
Andrea Navarro Flores,Spain,F,2000,Juniors,52,51.84,120,125,127.5,127.5,70,72.5,-75,72.5,147.5,157.5,-165,157.5,357.5,4,SBD,Raw,
Federica Casagranda,Italy,F,2000,Juniors,63,62.26,172.5,177.5,185,185,85,90,-95,90,160,170,180,180,455,5,SBD,Raw,
Alexandra Hubinska Buchancova,Slovakia,F,2000,Juniors,69,67.48,140,147.5,157.5,157.5,90,95,-100,95,155,162.5,-170,162.5,415,14,SBD,Raw,
Lara Vehar,Slovenia,F,2000,Juniors,57,56.78,125,130,-135,130,70,75,-77.5,75,135,142.5,-145,142.5,347.5,14,SBD,Raw,
Jana Verwimp,Belgium,F,2000,Juniors,63,62.26,122.5,130,137.5,137.5,75,80,-82.5,80,125,135,-142.5,135,352.5,14,SBD,Raw,
Inmaculada Soto Ruiz,Spain,F,2000,Juniors,63,62.74,147.5,155,160,160,97.5,102.5,105,105,200,207.5,-216.5,207.5,472.5,3,SBD,Raw,
Noemi Fanton,Italy,F,2000,Juniors,69,67.72,177.5,187.5,-190,187.5,97.5,102.5,-107.5,102.5,192.5,202.5,-210,202.5,492.5,2,SBD,Raw,
Jordan Bright,Ireland,F,2000,Juniors,69,67.6,-177.5,182.5,-192.5,182.5,-92.5,92.5,100,100,170,182.5,-195,182.5,465,4,SBD,Raw,
Kanelitsa Keramitzi,Greece,F,2000,Juniors,63,60.92,105,115,125,125,65,70,-72.5,70,142.5,150,155,155,350,15,SBD,Raw,
Kornelia Brunnhofer,Austria,F,2000,Juniors,69,66.8,132.5,142.5,150,150,-72.5,72.5,77.5,77.5,175,-190,190,190,417.5,12,SBD,Raw,
Bettina Hanlon,UK,F,2000,Juniors,69,68.62,157.5,165,-172.5,165,97.5,102.5,-107.5,102.5,175,187.5,-195,187.5,455,8,SBD,Raw,
Nelli Westerlund,Finland,F,2000,Juniors,57,56.16,127.5,135,-140,135,72.5,77.5,-80,77.5,135,145,-155,145,357.5,11,SBD,Raw,
Natalia Wójtowicz,Poland,F,2001,Juniors,69,68.1,127.5,132.5,-137.5,132.5,80,-85,-85,80,147.5,152.5,157.5,157.5,370,19,SBD,Raw,
Selma Ramberg Storstad,Norway,F,2001,Juniors,57,56.24,137.5,-142.5,142.5,142.5,95,-100,100,100,150,162.5,-170,162.5,405,6,SBD,Raw,
Eliška Ročárková,Czechia,F,2001,Juniors,57,56.14,125,132.5,-137.5,132.5,70,-72.5,72.5,72.5,135,142.5,-145,142.5,347.5,13,SBD,Raw,
Katrine Haals Stenvang,Denmark,F,2001,Juniors,76,75.46,145,152.5,155,155,90,95,97.5,97.5,160,170,175,175,427.5,7,SBD,Raw,
Nicole Spini,Italy,F,2001,Juniors,57,55.92,137.5,145,147.5,147.5,87.5,92.5,95,95,162.5,172.5,-177.5,172.5,415,4,SBD,Raw,
Millie Mabbutt,UK,F,2001,Juniors,76,75.02,150,157.5,162.5,162.5,80,85,90,90,155,165,170,170,422.5,9,SBD,Raw,
Caitlin Baxter,UK,F,2001,Juniors,57,56.56,150,155,160,160,97.5,102.5,105,105,155,162.5,165,165,430,2,SBD,Raw,
Dominika Jansová,Czechia,F,2001,Juniors,63,61.94,127.5,135,140,140,85,87.5,-92.5,87.5,160,170,-175,170,397.5,7,SBD,Raw,
Sarah McCormack,Ireland,F,2001,Juniors,52,50.88,115,120,-125,120,62.5,65,-67.5,65,110,120,127.5,127.5,312.5,8,SBD,Raw,
Šárka Fibingrová,Czechia,F,2001,Juniors,52,51.84,115,122.5,125,125,72.5,75,-77.5,75,132.5,-142.5,142.5,142.5,342.5,5,SBD,Raw,
Helena Mariella Decker,Germany,F,2001,Juniors,57,56.76,150,160,162.5,162.5,87.5,92.5,95,95,177.5,187.5,-192.5,187.5,445,1,SBD,Raw,
Leah Kearney,Ireland,F,2001,Juniors,69,66.76,130,140,145,145,-80,80,-82.5,80,162.5,170,175,175,400,17,SBD,Raw,
Elise Lombardo,Malta,F,2001,Juniors,57,55.92,112.5,-115,-115,112.5,47.5,50,52.5,52.5,100,105,110,110,275,16,SBD,Raw,
Nataliia Maha,Ukraine,F,2001,Juniors,57,56.56,-155,-160,160,160,75,77.5,80,80,160,167.5,-172.5,167.5,407.5,5,SBD,Raw,
Harriet Waite,UK,F,2001,Juniors,84+,100.48,185,195,205,205,90,95,100,100,177.5,190,197.5,197.5,502.5,1,SBD,Raw,
Yente Van Meel,Belgium,F,2001,Juniors,76,75.22,152.5,162.5,167.5,167.5,72.5,77.5,-82.5,77.5,170,182.5,187.5,187.5,432.5,5,SBD,Raw,
Loïse Guy,France,F,2001,Juniors,47,46.66,-100,100,-107.5,100,50,55,-57.5,55,-120,-120,120,120,275,4,SBD,Raw,
Marie-José van Daal,Netherlands,F,2001,Juniors,69,65.54,152.5,160,-165,160,-92.5,92.5,95,95,185,200,207.5,207.5,462.5,5,SBD,Raw,
Paula Alonso Vazquez,Spain,F,2001,Juniors,57,56.68,132.5,137.5,-142.5,137.5,82.5,-85,85,85,155,162.5,170,170,392.5,8,SBD,Raw,
Clara Haulot,Belgium,F,2001,Juniors,69,66.92,145,152.5,157.5,157.5,80,82.5,85,85,165,177.5,185,185,427.5,10,SBD,Raw,
Sofie Bruun Boye,Denmark,F,2001,Juniors,69,68.18,135,142.5,-145,142.5,72.5,-77.5,-77.5,72.5,142.5,152.5,-157.5,152.5,367.5,20,SBD,Raw,
Eszter Sallai,Hungary,F,2001,Juniors,69,68.1,155,165,-172.5,165,97.5,102.5,-105,102.5,185,195,-205,195,462.5,6,SBD,Raw,
Kolbrun Jonsdottir,Iceland,F,2001,Juniors,84+,119.26,185,-195,205,205,75,77.5,-80,77.5,175,-185,-192.5,175,457.5,3,SBD,Raw,
Sara Ciaravino,Italy,F,2001,Juniors,43,42.42,-105,105,110,110,67.5,-70,,67.5,85,105,110,110,287.5,1,SBD,Raw,
Marta Scuderi,Italy,F,2001,Juniors,47,46.2,115,122.5,127.5,127.5,65,-67.5,-67.5,65,-142.5,142.5,145,145,337.5,1,SBD,Raw,
Fanni Savela,Finland,F,2001,Juniors,69,68.24,150,157.5,162.5,162.5,112.5,117.5,121.5,121.5,182.5,192.5,197.5,197.5,481.5,3,SBD,Raw,
Giorgia Silvia Berton,Italy,F,2001,Juniors,76,69.24,-195,-202.5,-202.5,,100,102.5,105,105,195,207.5,212.5,212.5,,DQ,SBD,Raw,
Kaya Goossens,Belgium,F,2001,Juniors,69,67.8,150,-157.5,160,160,82.5,87.5,-90,87.5,157.5,170,177.5,177.5,425,11,SBD,Raw,
Monika Skowrońska,Poland,F,2002,Juniors,63,61.58,122.5,127.5,132.5,132.5,75,77.5,-80,77.5,150,157.5,-160,157.5,367.5,11,SBD,Raw,
Lucy Robinson #1,UK,F,2002,Juniors,63,62.1,165,172.5,177.5,177.5,75,80,85,85,185,197.5,207.5,207.5,470,4,SBD,Raw,
Ula Humar,Slovenia,F,2002,Juniors,63,61.74,130,135,140,140,70,75,-77.5,75,162.5,172.5,180,180,395,9,SBD,Raw,
Daniela Leitner,Austria,F,2002,Juniors,76,75.2,140,147.5,155,155,75,80,85,85,175,-185,-185,175,415,10,SBD,Raw,
Veronika Zemková,Czechia,F,2002,Juniors,84,82.98,140,147.5,152.5,152.5,72.5,77.5,80,80,150,160,-167.5,160,392.5,5,SBD,Raw,
Alicia Sorlí Ballester,Spain,F,2002,Juniors,69,68.12,150,157.5,160,160,72.5,77.5,-80,77.5,165,177.5,-187.5,177.5,415,15,SBD,Raw,
Amelia Fox #1,UK,F,2002,Juniors,57,55.8,125,-135,-135,125,67.5,72.5,-75,72.5,165,180,187.5,187.5,385,9,SBD,Raw,
Barbara Bécsi,Hungary,F,2002,Juniors,57,56.34,105,112.5,-120,112.5,65,-70,70,70,162.5,-170,170,170,352.5,12,SBD,Raw,
Andorina Bouchoux,France,F,2002,Juniors,69,68.8,187.5,195,198.5,198.5,105,110,112.5,112.5,200,207.5,-220,207.5,518.5,1,SBD,Raw,
Ellen Depreitere,Belgium,F,2002,Juniors,84+,90.36,135,145,-150,145,57.5,62.5,65,65,160,162.5,187.5,187.5,397.5,4,SBD,Raw,
Mathilde Casanova,France,F,2002,Juniors,47,46.42,105,110,-112.5,110,60,65,-67.5,65,132.5,-142.5,142.5,142.5,317.5,2,SBD,Raw,
Marcha Wieringa,Netherlands,F,2002,Juniors,84,83.06,155,162.5,-167.5,162.5,92.5,97.5,-100,97.5,187.5,197.5,-205,197.5,457.5,4,SBD,Raw,
Lan Gaffney,Ireland,F,2002,Juniors,63,60.36,125,130,132.5,132.5,70,75,-77.5,75,140,-150,150,150,357.5,13,SBD,Raw,
Mina Holmefjord,Norway,F,2003,Juniors,84,83.04,167.5,175,182.5,182.5,100,105,110,110,175,185,195,195,487.5,2,SBD,Raw,
Laoise Quinn,Ireland,F,2003,Juniors,57,56.34,140,147.5,150,150,77.5,82.5,-85,82.5,160,167.5,-175,167.5,400,7,SBD,Raw,
Nina Heikkinen,Finland,F,2003,Juniors,76,75.66,175,182.5,187.5,187.5,72.5,-77.5,77.5,77.5,165,-172.5,-172.5,165,430,6,SBD,Raw,
Julie De Preter,Belgium,F,2003,Juniors,57,56.58,120,125,-127.5,125,47.5,50,-52.5,50,140,147.5,-152.5,147.5,322.5,15,SBD,Raw,
Šárka Lukešová,Czechia,F,2003,Juniors,63,62.4,112.5,-120,-120,112.5,67.5,70,72.5,72.5,132.5,142.5,-150,142.5,327.5,16,SBD,Raw,
Emilia Rutkowska,Poland,F,2004,Juniors,69,64.06,130,135,140,140,60,62.5,65,65,155,162.5,167.5,167.5,372.5,18,SBD,Raw,
Oona Kujala,Finland,F,2004,Juniors,69,68.66,157.5,162.5,167.5,167.5,-85,-85,85,85,-160,160,-165,160,412.5,16,SBD,Raw,
Svatava Hanykyrova,Czechia,F,2004,Juniors,69,67.82,157.5,167.5,175,175,75,80,-82.5,80,165,177.5,-185,177.5,432.5,9,SBD,Raw,
Anežka Miková,Czechia,F,2004,Juniors,47,46.66,110,115,120,120,60,65,67.5,67.5,120,130,-135,130,317.5,3,SBD,Raw,
Amelie Valentova,Czechia,F,2004,Juniors,69,65.84,160,165,-170,165,72.5,77.5,-82.5,77.5,165,172.5,-177.5,172.5,415,13,SBD,Raw,
Pia Jacqueline Ruschke,Germany,F,2004,Juniors,69,68.48,162.5,172.5,-177.5,172.5,-87.5,90,92.5,92.5,175,185,192.5,192.5,457.5,7,SBD,Raw,
Julia Jurczyk,Poland,F,2005,Sub-Juniors,47,46.76,90,92.5,95,95,50,55,57.5,57.5,105,110,-120,110,262.5,1,SBD,Raw,
Dominika Skonieczna,Poland,F,2005,Sub-Juniors,52,50.66,75,80,85,85,40,42.5,45,45,105,115,135,135,265,5,SBD,Raw,
Alicja Rojek,Poland,F,2005,Sub-Juniors,69,67.26,115,120,-122.5,120,65,67.5,70,70,145,152.5,157.5,157.5,347.5,5,SBD,Raw,
Wiktoria Jozwiak,Poland,F,2005,Sub-Juniors,76,75.76,-135,-140,140,140,-65,65,-70,65,162.5,172.5,-180,172.5,377.5,6,SBD,Raw,
Emily Byrne #1,UK,F,2005,Sub-Juniors,69,67.36,132.5,140,142.5,142.5,82.5,85,87.5,87.5,147.5,155,157.5,157.5,387.5,2,SBD,Raw,
Skye Moore,UK,F,2005,Sub-Juniors,63,62.14,147.5,155,-160,155,82.5,85,87.5,87.5,170,180,-193.5,180,422.5,2,SBD,Raw,
Regina Petri,Hungary,F,2005,Sub-Juniors,84+,84.26,110,117.5,-122.5,117.5,55,60,62.5,62.5,145,155,165,165,345,7,SBD,Raw,
Linda Boneccher,Italy,F,2005,Sub-Juniors,84,81.8,137.5,147.5,160,160,85,90,-92.5,90,145,157.5,-175,157.5,407.5,3,SBD,Raw,
Eva Strgar,Slovenia,F,2005,Sub-Juniors,57,56.06,137.5,142.5,-145,142.5,-67.5,67.5,72.5,72.5,152.5,160,162.5,162.5,377.5,1,SBD,Raw,
Abi Houlihan,Ireland,F,2005,Sub-Juniors,57,54.42,100,105,110,110,45,-47.5,-47.5,45,110,122.5,-130,122.5,277.5,13,SBD,Raw,
Lois Anderton,UK,F,2005,Sub-Juniors,69,66.62,142.5,150,-152.5,150,72.5,75,77.5,77.5,147.5,155,160,160,387.5,1,SBD,Raw,
Klara Mezek,Slovenia,F,2005,Sub-Juniors,69,66.48,127.5,135,137.5,137.5,57.5,62.5,65,65,137.5,147.5,150,150,352.5,3,SBD,Raw,
Kateřina Bláhová,Czechia,F,2005,Sub-Juniors,76,71.26,132.5,140,145,145,60,65,-70,65,150,157.5,-165,157.5,367.5,7,SBD,Raw,
Loane Venot,France,F,2005,Sub-Juniors,57,56.2,125,130,132.5,132.5,62.5,65,-67.5,65,140,147.5,-157.5,147.5,345,4,SBD,Raw,
Ronja Ruti,Finland,F,2005,Sub-Juniors,57,56.7,110,115,-117.5,115,65,67.5,-70,67.5,130,135,-137.5,135,317.5,9,SBD,Raw,
Aneta Hochsteigerova,Czechia,F,2005,Sub-Juniors,63,62.68,127.5,135,-140,135,67.5,72.5,75,75,132.5,137.5,147.5,147.5,357.5,5,SBD,Raw,
Marah Bahar,UK,F,2005,Sub-Juniors,76,74.88,110,115,117.5,117.5,47.5,50,52.5,52.5,117.5,122.5,-125,122.5,292.5,10,SBD,Raw,
Valeriia Koniukhova,Ukraine,F,2005,Sub-Juniors,43,41.56,67.5,72.5,75,75,42.5,45,47.5,47.5,90,97.5,107.5,107.5,,DD,SBD,Raw,
Kiara Kullamaa,Estonia,F,2005,Sub-Juniors,84+,131.7,-135,135,145,145,57.5,-65,65,65,150,167.5,180,180,390,1,SBD,Raw,
Josefina Saarinen,Finland,F,2005,Sub-Juniors,76,72.36,127.5,135,145,145,77.5,82.5,85,85,147.5,155,165,165,395,4,SBD,Raw,
Adél Gyöngyösi,Hungary,F,2005,Sub-Juniors,76,75.52,115,120,125,125,92.5,97.5,100,100,147.5,155,162.5,162.5,387.5,5,SBD,Raw,
Sohvi Mikkonen,Finland,F,2005,Sub-Juniors,63,63,135,137.5,-142.5,137.5,75,-77.5,-77.5,75,145,150,155,155,367.5,3,SBD,Raw,
Anja Wiggen Skancke,Norway,F,2005,Sub-Juniors,76,75.82,162.5,171.5,175,175,62.5,67.5,70,70,162.5,170,177.5,177.5,422.5,2,SBD,Raw,
Aleena Akhtar,UK,F,2005,Sub-Juniors,63,57.96,105,110,115,115,50,55,-60,55,137.5,145,150,150,320,7,SBD,Raw,
Fiorella Merandino,Belgium,F,2005,Sub-Juniors,52,50.7,105,110,-112.5,110,62.5,65,-67.5,65,140,150,-157,150,325,4,SBD,Raw,
Nina Čurič,Slovenia,F,2006,Sub-Juniors,76,71.22,130,137.5,145,145,65,67.5,72.5,72.5,155,165,177.5,177.5,395,3,SBD,Raw,
Daniela Fadrná,Czechia,F,2006,Sub-Juniors,76,75.2,110,115,120,120,75,-80,80,80,140,147.5,150,150,350,9,SBD,Raw,
Amanda Airasmaa,Finland,F,2006,Sub-Juniors,84+,84.86,125,-130,132.5,132.5,70,72.5,75,75,140,150,-165,150,357.5,5,SBD,Raw,
Janette Ylisoini,Finland,F,2006,Sub-Juniors,76,73.06,160,167.5,-172,167.5,77.5,82.5,-85,82.5,162.5,170,177.5,177.5,427.5,1,SBD,Raw,
Hannah Karpal,UK,F,2006,Sub-Juniors,57,55.6,95,100,102.5,102.5,52.5,57.5,-60,57.5,135,-145,145,145,305,11,SBD,Raw,
Wanda Pencáková,Czechia,F,2006,Sub-Juniors,57,55.6,120,125,-130,125,-62.5,62.5,67.5,67.5,125,132.5,137.5,137.5,330,7,SBD,Raw,
Juuli Kostian,Finland,F,2006,Sub-Juniors,63,62.5,155,161,-163.5,161,-95,95,-99,95,170,180,-182.5,180,436,1,SBD,Raw,
Nikola Nábělková,Czechia,F,2006,Sub-Juniors,84,78.1,122.5,132.5,-137.5,132.5,65,70,-72.5,70,155,162.5,-165,162.5,365,4,SBD,Raw,
Magdalena Farina,Croatia,F,2006,Sub-Juniors,84+,89.64,117.5,125,130,130,47.5,52.5,-55,52.5,147.5,155,165,165,347.5,6,SBD,Raw,
Marelin Jüriado,Estonia,F,2006,Sub-Juniors,84,80.4,130,137.5,145,145,80,85,90,90,175,187.5,200.5,200.5,435.5,2,SBD,Raw,
Chloe Trent,UK,F,2006,Sub-Juniors,47,45.54,97.5,-102.5,102.5,102.5,45,47.5,-50,47.5,102.5,-110,-120,102.5,252.5,2,SBD,Raw,
Lea Tulipan,Hungary,F,2006,Sub-Juniors,57,56.76,110,115,-120,115,57.5,60,62.5,62.5,140,-147.5,152.5,152.5,330,8,SBD,Raw,
Maeva Dero,Belgium,F,2006,Sub-Juniors,57,55.8,117.5,-127.5,127.5,127.5,62.5,67.5,72.5,72.5,155,165,173.5,173.5,373.5,2,SBD,Raw,
Emma Honkonen,Finland,F,2006,Sub-Juniors,57,56.84,100,107.5,112.5,112.5,55,57.5,60,60,135,142.5,-152.5,142.5,315,10,SBD,Raw,
Alice Del Fabro,Italy,F,2006,Sub-Juniors,52,51.22,115,120,122.5,122.5,60,65,67.5,67.5,132.5,140,-150,140,330,2,SBD,Raw,
Rebekka Reinert,Germany,F,2006,Sub-Juniors,84,83.06,170,180,188,188,87.5,92.5,97.5,97.5,170,185,-195,185,470.5,1,SBD,Raw,
Štěpánka Radová,Czechia,F,2006,Sub-Juniors,69,68.24,120,130,135,135,60,65,67.5,67.5,130,140,150,150,352.5,4,SBD,Raw,
Gaby Watman,UK,F,2006,Sub-Juniors,57,54.86,125,-132.5,135,135,57.5,62.5,65,65,132.5,140,-142.5,140,340,5,SBD,Raw,
Maria Quirante Perez,Spain,F,2006,Sub-Juniors,47,44.76,70,80,87.5,87.5,42.5,47.5,-50,47.5,90,100,-107.5,100,235,4,SBD,Raw,
Dorka Pál,Hungary,F,2007,Sub-Juniors,76,72.9,150,-155,-155,150,-55,-55,55,55,150,160,-165,160,365,8,SBD,Raw,
Nikola Tomsova,Czechia,F,2007,Sub-Juniors,52,52,107.5,115,-120,115,65,67.5,70,70,125,132.5,142.5,142.5,327.5,3,SBD,Raw,
Lenka Veronyova,Slovakia,F,2007,Sub-Juniors,63,61.9,110,-125,-137.5,110,52.5,60,-65,60,110,130,150,150,320,8,SBD,Raw,
Alba Domingo Venegas,Spain,F,2007,Sub-Juniors,63,61.96,110,115,120,120,70,-75,-75,70,150,-157.5,-157.5,150,340,6,SBD,Raw,
Raisa Korhonen,Finland,F,2007,Sub-Juniors,84,78.42,130,137.5,142.5,142.5,55,60,-62.5,60,132.5,140,147.5,147.5,350,5,SBD,Raw,
Jitka Ducková,Czechia,F,2007,Sub-Juniors,57,56.6,97.5,102.5,-105,102.5,52.5,55,57.5,57.5,125,-132.5,-132.5,125,285,12,SBD,Raw,
Tetiana Petrenko,Ukraine,F,2007,Sub-Juniors,57,56.8,110,120,127.5,127.5,70,77.5,-80,77.5,140,150,-155,150,355,3,SBD,Raw,
Cassandre Olivier,France,F,2007,Sub-Juniors,52,51.58,110,117.5,122.5,122.5,70,75,77.5,77.5,127.5,135,140,140,340,1,SBD,Raw,
Alexandra Fragoso Kurchak,Spain,F,2007,Sub-Juniors,57,56.2,110,115,120,120,75,80,-82.5,80,127.5,135,140,140,340,6,SBD,Raw,
Reda Laurinavičiūtė,Lithuania,F,2007,Sub-Juniors,84+,84.02,140,-150,-150,140,72.5,75,-77.5,75,160,167.5,172.5,172.5,387.5,2,SBD,Raw,
Jana Rojková,Czechia,F,2007,Sub-Juniors,63,62.92,125,132.5,-135,132.5,77.5,82.5,85,85,130,140,147.5,147.5,365,4,SBD,Raw,
Tiffany Pilnikova,UK,F,2007,Sub-Juniors,43,39.38,70,75,77.5,77.5,42.5,45,47.5,47.5,92.5,97.5,102.5,102.5,227.5,1,SBD,Raw,
Noemi Mucsi,Hungary,F,2008,Sub-Juniors,84+,114.36,130,142.5,147.5,147.5,62.5,67.5,70,70,140,150,155,155,372.5,3,SBD,Raw,
Lidia Grzeskowiak,Poland,F,2008,Sub-Juniors,47,46.46,80,85,87.5,87.5,40,45,-47.5,45,-90,95,102.5,102.5,235,5,SBD,Raw,
Jenna Tarvainen,Finland,F,2008,Sub-Juniors,47,47,85,87.5,90,90,55,57.5,-60,57.5,90,95,-100,95,242.5,3,SBD,Raw,
Caylee Attard,Malta,F,2008,Sub-Juniors,84+,86.84,135,145,152.5,152.5,-57.5,62.5,65,65,135,145,152.5,152.5,370,4,SBD,Raw,
Riccardo Montanelli Eccher,Italy,M,2000,Juniors,105,102.16,270,290,300,300,160,170,177.5,177.5,280,305,-327.5,305,782.5,8,SBD,Raw,
Walter Smajlović,Croatia,M,2000,Juniors,83,82.7,225,240,-247.5,240,167.5,172.5,177.5,177.5,-257.5,265,-275,265,682.5,15,SBD,Raw,
Simen Johnson Myrvold,Norway,M,2000,Juniors,83,82.66,230,240,245,245,182.5,-195,-195,182.5,230,240,245,245,672.5,17,SBD,Raw,
Yuriy Revuka,Ukraine,M,2000,Juniors,74,73.72,225,235,-240,235,150,157.5,162.5,162.5,225,-240,240,240,637.5,9,SBD,Raw,
Krisztián Posta,Hungary,M,2000,Juniors,74,73.62,217.5,230,242.5,242.5,132.5,142.5,145,145,245,260,277.5,277.5,665,7,SBD,Raw,
László Póta,Hungary,M,2000,Juniors,74,73.04,217.5,232.5,-247.5,232.5,157.5,165,170,170,242.5,262.5,-280,262.5,665,6,SBD,Raw,
Jiří Bilko,Czechia,M,2000,Juniors,93,87.5,200,210,220,220,155,165,-175,165,240,270,285,285,670,16,SBD,Raw,
John Wortel,Netherlands,M,2000,Juniors,93,92.42,262.5,275,-280,275,177.5,-185,190,190,280,295,302.5,302.5,767.5,6,SBD,Raw,
Artem Usov,Czechia,M,2000,Juniors,120+,145.28,300,312.5,322.5,322.5,190,200,205,205,300,315,-325,315,842.5,3,SBD,Raw,
Preslav Petrov,Bulgaria,M,2000,Juniors,105,102.9,210,220,230,230,145,155,162.5,162.5,270,280,285,285,677.5,15,SBD,Raw,
Percy Covic,Germany,M,2000,Juniors,120,119.48,305,320,-322.5,320,190,197.5,202.5,202.5,310,327.5,332.5,332.5,855,1,SBD,Raw,
Karel Van Der Velpen,Belgium,M,2000,Juniors,93,92.34,240,250,,250,165,170,172.5,172.5,270,285,-300,285,707.5,11,SBD,Raw,
Jean-Philippe Haid,Belgium,M,2000,Juniors,93,90.38,220,232.5,237.5,237.5,125,132.5,135,135,260,272.5,-277.5,272.5,645,20,SBD,Raw,
Marios Liatsis,Greece,M,2000,Juniors,66,65.06,197.5,212.5,217.5,217.5,127.5,135,-140,135,232.5,255,-260,255,607.5,3,SBD,Raw,
Collin Yakwo,Netherlands,M,2000,Juniors,105,104.66,265,-275,-275,265,180,187.5,-190,187.5,300,312.5,-317.5,312.5,765,10,SBD,Raw,
Matteo Marzolla,Italy,M,2000,Juniors,105,103.2,285,-300,300,300,170,175,177.5,177.5,305,325,-340,325,802.5,5,SBD,Raw,
Karlo Mikešić,Croatia,M,2000,Juniors,105,103.48,275,285,-287.5,285,170,180,185,185,305,320,330,330,800,7,SBD,Raw,
Lewis Kelly,UK,M,2000,Juniors,120,119.22,265,-282.5,-282.5,265,177.5,187.5,190,190,300,320,-337.5,320,775,9,SBD,Raw,
Nuutti Mansukoski,Finland,M,2000,Juniors,120+,160.02,290,317.5,340,340,190,205,217.5,217.5,295,335,352.5,352.5,910,2,SBD,Raw,
Luka Šimundić Ljubičić,Croatia,M,2000,Juniors,120,118.94,-230,-230,230,230,155,-162.5,170,170,310,332.5,-350,332.5,732.5,13,SBD,Raw,
Lukša Zlošilo,Croatia,M,2000,Juniors,74,73.18,195,205,210,210,145,152.5,157.5,157.5,225,235,-242.5,235,602.5,11,SBD,Raw,
Marko Kuzmić,Croatia,M,2000,Juniors,83,81.1,195,212.5,225,225,135,145,-152.5,145,230,247.5,260,260,630,21,SBD,Raw,
Rene Caky,Switzerland,M,2000,Juniors,105,103.1,280,300,302.5,302.5,202.5,210,215,215,295,312.5,327.5,327.5,845,2,SBD,Raw,
Antoine De Rohden,France,M,2000,Juniors,120,118.26,75,125,,125,195,200,205,205,125,,,125,455,16,SBD,Raw,
Marcus Kruhoeffer,Denmark,M,2000,Juniors,93,92.7,255,-267.5,270,270,150,-157.5,157.5,157.5,270,285,-300,285,712.5,8,SBD,Raw,
Viliam Kováč,Czechia,M,2000,Juniors,59,58.52,-180,180,-185,180,120,125,-130,125,220,227.5,-235,227.5,532.5,1,SBD,Raw,
Pablo de Haro Muñoz,Spain,M,2000,Juniors,83,82.02,230,242.5,250,250,165,172.5,177.5,177.5,252.5,270,-282.5,270,697.5,9,SBD,Raw,
Dario Milicia,Italy,M,2001,Juniors,74,73.92,237.5,250,255,255,152.5,160,-165,160,275,282.5,-285,282.5,697.5,3,SBD,Raw,
Matej Skycak,Slovakia,M,2001,Juniors,105,104.16,250,265,270,270,165,-175,175,175,275,-290,-292.5,275,720,13,SBD,Raw,
Temur Samkharadze,Georgia,M,2001,Juniors,120+,152.38,360,385,-404,385,210,220,227.5,227.5,350,-389,389,389,1001.5,1,SBD,Raw,
Karel Rada #2,Czechia,M,2001,Juniors,83,82.38,230,245,-250,245,140,145,147.5,147.5,260,-275,-275,260,652.5,19,SBD,Raw,
Koyuncu Zack,Malta,M,2001,Juniors,93,89.36,190,-202.5,202.5,202.5,125,130,135,135,205,212.5,220,220,557.5,22,SBD,Raw,
Antonio Pérez Barros,Spain,M,2001,Juniors,105,103.98,295,-312.5,325,325,160,170,175,175,292.5,315,347.5,347.5,847.5,1,SBD,Raw,
Emil Johansson,Sweden,M,2001,Juniors,105,104.1,285,297.5,305,305,175,182.5,185,185,300,312.5,-320,312.5,802.5,6,SBD,Raw,
Kristian Eek Haugen,Norway,M,2001,Juniors,120,118.18,275,292.5,302.5,302.5,205,220,227.5,227.5,292.5,312.5,320,320,850,2,SBD,Raw,
Sylvain Nguyen Van Sang,France,M,2001,Juniors,59,58.16,172.5,182.5,185,185,112.5,120,122.5,122.5,205,217.5,-225,217.5,525,2,SBD,Raw,
Thomas Bouyer,France,M,2001,Juniors,74,73.7,232.5,242.5,250,250,150,160,165,165,270,282.5,287.5,287.5,702.5,1,SBD,Raw,
Mats Høylo Kjøllesdal,Norway,M,2001,Juniors,120,112.14,275,-287.5,287.5,287.5,180,190,195,195,280,305,-320,305,787.5,8,SBD,Raw,
Valerio Nunziata,Italy,M,2001,Juniors,66,65.14,187.5,-197.5,200,200,137.5,142.5,-145,142.5,242.5,257.5,267.5,267.5,610,2,SBD,Raw,
Carlos Romero Donat,Spain,M,2001,Juniors,105,104.8,262.5,272.5,282.5,282.5,-162.5,-165,165,165,270,290,-305,290,737.5,11,SBD,Raw,
Andrew Blackwood,Ireland,M,2001,Juniors,120,113.62,280,295,307.5,307.5,170,177.5,182.5,182.5,305,325,337.5,337.5,827.5,4,SBD,Raw,
Dimitris Davazoglou,Greece,M,2001,Juniors,83,81.42,240,255,262.5,262.5,175,-185,-185,175,260,270,-275,270,707.5,8,SBD,Raw,
Uwaifo Asein,Hungary,M,2001,Juniors,83,82.66,220,-232.5,232.5,232.5,137.5,145,-150,145,260,280,295,295,672.5,16,SBD,Raw,
Abdul Wajid Butt,UK,M,2001,Juniors,66,65.64,-192.5,-192.5,192.5,192.5,125,130,132.5,132.5,230,240,247.5,247.5,572.5,7,SBD,Raw,
Rokas Burba,Lithuania,M,2001,Juniors,83,82,217.5,-230,237.5,237.5,152.5,160,165,165,242.5,255,-265,255,657.5,18,SBD,Raw,
Marcos Albaladejo Castro,Spain,M,2001,Juniors,74,72.66,240,252.5,-257.5,252.5,142.5,147.5,150,150,265,280,292.5,292.5,695,4,SBD,Raw,
Bryan Brunetti,Italy,M,2001,Juniors,59,58.32,157.5,165,172.5,172.5,127.5,132.5,137.5,137.5,175,185,190,190,500,3,SBD,Raw,
Hugo Sánchez Ayuso,Spain,M,2001,Juniors,66,65.04,185,-195,,185,112.5,117.5,-122.5,117.5,225,235,240,240,542.5,9,SBD,Raw,
Christian Enger,Denmark,M,2001,Juniors,105,103.4,260,-272.5,-272.5,260,145,150,155,155,255,265,-270,265,680,14,SBD,Raw,
Elias Hanken Fiskerstrand,Norway,M,2001,Juniors,83,82.42,240,252.5,-260,252.5,160,170,175,175,275,300,-307.5,300,727.5,6,SBD,Raw,
Adam McAlpine,Ireland,M,2001,Juniors,83,82.74,230,242.5,250,250,162.5,170,175,175,250,265,-275,265,690,12,SBD,Raw,
Benedict Grant,UK,M,2001,Juniors,66,65.4,207.5,222.5,230,230,132.5,137.5,140,140,225,240,250,250,620,1,SBD,Raw,
Andrew Roe,Ireland,M,2001,Juniors,105,98.78,250,262.5,270,270,172.5,182.5,185,185,250,270,275,275,730,12,SBD,Raw,
Dávid Erőss,Hungary,M,2001,Juniors,105,102.08,205,222.5,230,230,135,140,145,145,250,262.5,-275,262.5,637.5,16,SBD,Raw,
Andrea Orlandi #1,Italy,M,2001,Juniors,83,82.88,-260,275,-285,275,180,192.5,205.5,205.5,265,-285,290,290,770.5,3,SBD,Raw,
Thomas Czaplicki,France,M,2001,Juniors,83,82.38,252.5,267.5,-272.5,267.5,157.5,165,170,170,290,310,-317.5,310,747.5,4,SBD,Raw,
Vittorio Simonelli,Italy,M,2001,Juniors,66,65.38,197.5,-205,205,205,-150,150,-152.5,150,210,220,-225,220,575,6,SBD,Raw,
Patrik Kasuba,Slovakia,M,2001,Juniors,83,82.4,250,260,-262.5,260,150,157.5,-162.5,157.5,270,-285,-285,270,687.5,13,SBD,Raw,
Mario Kang,Estonia,M,2001,Juniors,120,119.66,255,270,-280,270,175,185,-190,185,260,280,300,300,755,11,SBD,Raw,
Nathan McDowell,UK,M,2001,Juniors,74,73.66,225,237.5,247.5,247.5,145,152.5,155,155,245,257.5,-265,257.5,660,8,SBD,Raw,
Tyrese Zichem,Netherlands,M,2002,Juniors,66,65.86,200,210,-217.5,210,115,120,125,125,240,252.5,-257.5,252.5,587.5,5,SBD,Raw,
Jordi Corbella Edo,Spain,M,2002,Juniors,93,91.42,247.5,262.5,270,270,167.5,172.5,-175,172.5,262.5,280,292.5,292.5,735,7,SBD,Raw,
Daryl Ruggier,Malta,M,2002,Juniors,83,80.82,175,-190,-190,175,130,-135,137.5,137.5,240,-255,255,255,567.5,23,SBD,Raw,
Joey Awala,UK,M,2002,Juniors,83,82.62,245,260,267.5,267.5,160,167.5,170,170,300,317.5,335,335,772.5,1,SBD,Raw,
Geert Vroonen,Belgium,M,2002,Juniors,120,115.66,270,285,290,290,180,190,195,195,295,315,-325,315,800,6,SBD,Raw,
Kolter Kaarel,Estonia,M,2002,Juniors,120,109.68,275,290,300,300,205,215,222.5,222.5,305,320,-330,320,842.5,3,SBD,Raw,
Gabriele Bellomo,Italy,M,2002,Juniors,83,82.9,260,275,282.5,282.5,160,165,170,170,305,315,320,320,772.5,2,SBD,Raw,
Remi Tregan,Switzerland,M,2002,Juniors,93,86.94,227.5,240,250,250,132.5,140,-142.5,140,252.5,267.5,277.5,277.5,667.5,17,SBD,Raw,
Kalin Drashkov,Bulgaria,M,2002,Juniors,66,65.86,200,207.5,-212.5,207.5,127.5,135,-142.5,135,247.5,262.5,-272.5,262.5,605,4,SBD,Raw,
Alejandro Núñez Padial,Spain,M,2002,Juniors,120,119.8,272.5,-275,-300,272.5,-167.5,170,-175,170,280,300,317.5,317.5,760,10,SBD,Raw,
Filip Prokeš,Czechia,M,2002,Juniors,66,65.26,190,200,-207.5,200,107.5,115,117.5,117.5,215,230,242.5,242.5,560,8,SBD,Raw,
Tomáš Votava,Czechia,M,2002,Juniors,83,82.38,235,242.5,250,250,155,160,165,165,250,267.5,-275,267.5,682.5,14,SBD,Raw,
András Gerlai,Hungary,M,2002,Juniors,93,89.58,235,247.5,-255,247.5,160,167.5,172.5,172.5,250,265,-280,265,685,13,SBD,Raw,
Luka Babić,Croatia,M,2002,Juniors,66,64.25,147.5,155,160,160,90,-92.5,92.5,92.5,195,207.5,-212.5,207.5,460,11,SBD,Raw,
Pablo Sánchez Urriza,Spain,M,2002,Juniors,83,82.22,240,255,260,260,132.5,137.5,140,140,302.5,317.5,-335,317.5,717.5,7,SBD,Raw,
Nathaniel Massiah,UK,M,2002,Juniors,93,92.76,270,282.5,290,290,167.5,175,177.5,177.5,315,335,342.5,342.5,810,1,SBD,Raw,
Killian Valette,France,M,2002,Juniors,53,52.58,160,167.5,170,170,100,105,107.5,107.5,190,200.5,205,205,482.5,1,SBD,Raw,
Alan Sueur,France,M,2003,Juniors,66,65.96,-217.5,-217.5,-217.5,,115,,,115,230,245,-257.5,245,,DQ,SBD,Raw,
Luka Hrgarek,Croatia,M,2003,Juniors,93,92.28,230,237.5,242.5,242.5,162.5,167.5,170,170,280,-295,295,295,707.5,10,SBD,Raw,
Matthew Pond,UK,M,2003,Juniors,83,81.56,270,280,-285,280,177.5,-185,-192.5,177.5,250,262.5,270,270,727.5,5,SBD,Raw,
Erik Schwarzenbach,Switzerland,M,2003,Juniors,93,92.72,227.5,235,242.5,242.5,152.5,162.5,167.5,167.5,250,262.5,-270,262.5,672.5,15,SBD,Raw,
Jack Hopkins,UK,M,2003,Juniors,93,92.22,260,275,282.5,282.5,187.5,195,200,200,300,317.5,325,325,807.5,2,SBD,Raw,
Nicolas Warnon,Belgium,M,2003,Juniors,83,82.18,212.5,225,-232.5,225,125,130,132.5,132.5,240,257.5,-270,257.5,615,22,SBD,Raw,
Konstantinos Dimitriou,Greece,M,2003,Juniors,74,72.94,195,205,-207.5,205,127.5,-132.5,-137.5,127.5,250,260,-267.5,260,592.5,12,SBD,Raw,
Luca Umberto Angrisano,Italy,M,2003,Juniors,93,92.38,255,270,280,280,157.5,162.5,-165,162.5,300,317.5,335,335,777.5,5,SBD,Raw,
Jacob Heise,Denmark,M,2003,Juniors,74,73.8,-197.5,205,212.5,212.5,127.5,132.5,137.5,137.5,237.5,250,257.5,257.5,607.5,10,SBD,Raw,
Marcos Souto Romero,Spain,M,2003,Juniors,74,73.71,245,257.5,-260,257.5,145,150,-152.5,150,262.5,277.5,290,290,697.5,2,SBD,Raw,
Matic Poredoš,Slovenia,M,2003,Juniors,93,92.2,202.5,215,225,225,-142.5,145,-152.5,145,255,270,277.5,277.5,647.5,19,SBD,Raw,
Glenn Vella,Malta,M,2003,Juniors,83,78.08,175,180,187.5,187.5,95,100,105,105,210,220,225,225,517.5,25,SBD,Raw,
Luke Brincat Stellini,Malta,M,2003,Juniors,93,92.84,210,215,220,220,130,135,-140,135,220,225,230,230,585,21,SBD,Raw,
Olivér Susa,Hungary,M,2004,Juniors,105,103.98,260,-280,295,295,202.5,215,220,220,260,280,302.5,302.5,817.5,4,SBD,Raw,
Brandon Teh,UK,M,2004,Juniors,74,71.9,217.5,232.5,240,240,137.5,147.5,152.5,152.5,250,267.5,282.5,282.5,675,5,SBD,Raw,
Malik Bernoussi Triolet,France,M,2004,Juniors,93,92.66,280,290,295,295,212.5,217.5,221,221,290,-302.5,-305,290,806,4,SBD,Raw,
Malcolm Borg,Malta,M,2004,Juniors,66,64.96,160,170,175,175,87.5,95,-100,95,182.5,195,-205,195,465,10,SBD,Raw,
Staš Oražem,Slovenia,M,2004,Juniors,74,69.71,190,202.5,210,210,132.5,137.5,-140,137.5,222.5,-232.5,-232.5,222.5,570,13,SBD,Raw,
Emmanouil Olympios Mayriotis Papoutsakis,Greece,M,2004,Juniors,93,91.04,240,252.5,-257.5,252.5,145,155,-160,155,255,272.5,280,280,687.5,12,SBD,Raw,
Viktor Hubáček,Czechia,M,2004,Juniors,93,92.36,220,232.5,245,245,162.5,172.5,180,180,267.5,285,-300,285,710,9,SBD,Raw,
Axel Isberg,Sweden,M,2004,Juniors,120,119.92,300,310,317.5,317.5,160,-167.5,-167.5,160,300,310,312.5,312.5,790,7,SBD,Raw,
Timotej Kolmanko,Slovenia,M,2004,Juniors,93,91.76,245,260,270,270,132.5,140,145,145,240,252.5,-265,252.5,667.5,18,SBD,Raw,
Samuel Svartsjö,Finland,M,2004,Juniors,120,116.86,255,272.5,285,285,162.5,-172.5,-172.5,162.5,270,287.5,-300,287.5,735,12,SBD,Raw,
Maciej Sławski,Poland,M,2005,Sub-Juniors,105,104.32,245,255,257.5,257.5,145,-150,155,155,250,260,267.5,267.5,680,2,SBD,Raw,
Samuel Cohen #1,France,M,2005,Sub-Juniors,74,73.32,207.5,215,220,220,147.5,155,160,160,242.5,255,260,260,640,2,SBD,Raw,
Jonas Delile,France,M,2005,Sub-Juniors,59,58.06,152.5,160,167.5,167.5,97.5,102.5,105,105,170,180,187.5,187.5,460,4,SBD,Raw,
Nikolaos Karras,Greece,M,2005,Sub-Juniors,83,81.84,195,-207.5,210,210,142.5,150,-152.5,150,-235,235,255,255,615,6,SBD,Raw,
Ville Hannula,Finland,M,2005,Sub-Juniors,93,91.94,232.5,242.5,252.5,252.5,130,-137.5,-137.5,130,250,265,-282.5,265,647.5,7,SBD,Raw,
Tamás Lakó,Hungary,M,2005,Sub-Juniors,93,92.5,217.5,232.5,-237.5,232.5,145,155,-157.5,155,230,245,-267.5,245,632.5,8,SBD,Raw,
Nonso Chinye,UK,M,2005,Sub-Juniors,120,117.06,285,305,313,313,177.5,185,192.5,192.5,320,347.5,363,363,868.5,1,SBD,Raw,
Liam Malone,Ireland,M,2005,Sub-Juniors,83,81.32,197.5,212.5,222.5,222.5,120,127.5,-132.5,127.5,240,-250,-260,240,590,9,SBD,Raw,
Bryan Magbetha,Belgium,M,2005,Sub-Juniors,93,91.96,212.5,222.5,227.5,227.5,147.5,155,-160,155,265,280,290,290,672.5,3,SBD,Raw,
Anders Nguyen,Sweden,M,2005,Sub-Juniors,66,65.6,215,225.5,-231.5,225.5,122.5,127.5,132.5,132.5,230,240,250,250,608,1,SBD,Raw,
Adam Stromko,Slovakia,M,2005,Sub-Juniors,120,117.02,285,300,309,309,160,170,175,175,250,267.5,-277.5,267.5,751.5,3,SBD,Raw,
Joshua Ngoka,UK,M,2005,Sub-Juniors,120+,152.54,295,315.5,323,323,177.5,185,-192.5,185,315,323,330.5,330.5,838.5,1,SBD,Raw,
Josip Buzov Matuzović,Croatia,M,2005,Sub-Juniors,59,58.42,125,130,132.5,132.5,75,80,-82.5,80,130,137.5,-145,137.5,350,7,SBD,Raw,
Roland Komáromi,Hungary,M,2005,Sub-Juniors,93,92.62,227.5,240,252.5,252.5,142.5,147.5,152.5,152.5,235,255,-267.5,255,660,6,SBD,Raw,
Carlo Vizza,Italy,M,2005,Sub-Juniors,59,58.16,140,147.5,152.5,152.5,112.5,120,-122.5,120,172.5,180,-185,180,452.5,5,SBD,Raw,
Nándor Bíró,Hungary,M,2005,Sub-Juniors,83,82.18,195,205,215,215,115,122.5,-125,122.5,215,232.5,240,240,577.5,10,SBD,Raw,
Branislav Vanga,Slovakia,M,2005,Sub-Juniors,105,102.56,200,215,230,230,152.5,160,162.5,162.5,260,270,-282.5,270,662.5,5,SBD,Raw,
Cristian Verdugo Beltran,Spain,M,2005,Sub-Juniors,66,65.38,187.5,197.5,-205,197.5,120,-125,-125,120,225,-232.5,-232.5,225,542.5,5,SBD,Raw,
Ethan Wilson #2,UK,M,2005,Sub-Juniors,93,92.32,207.5,-215,-215,207.5,122.5,125,127.5,127.5,250,260,-267.5,260,595,14,SBD,Raw,
Mitchell Guppy,UK,M,2005,Sub-Juniors,93,90.58,200,212.5,220,220,132.5,140,-142.5,140,235,-242.5,-242.5,235,595,13,SBD,Raw,
Mario Magro,Belgium,M,2005,Sub-Juniors,66,65.8,215,225,-231,225,115,120,125,125,235,250,-258.5,250,600,2,SBD,Raw,
Ádám Dániel Hubert,Hungary,M,2005,Sub-Juniors,74,71.9,215,220,225,225,115,120,122.5,122.5,245,257.5,270,270,617.5,3,SBD,Raw,
Radoslav Kalaidzhiev,Bulgaria,M,2005,Sub-Juniors,83,80.52,205,-217.5,-217.5,205,-137.5,142.5,150,150,200,212.5,220,220,575,11,SBD,Raw,
Isaac Wong #1,UK,M,2005,Sub-Juniors,74,71.6,205,217.5,225,225,105,110,115,115,225,240,247.5,247.5,587.5,7,SBD,Raw,
Andria Mikautadze,Georgia,M,2005,Sub-Juniors,53,51.24,125,130,140,140,80,-87.5,90,90,170,180,185.5,185.5,415.5,1,SBD,Raw,
Erik Němec,Czechia,M,2005,Sub-Juniors,83,82.54,205,215,220,220,110,-117.5,122.5,122.5,255,267.5,272.5,272.5,615,7,SBD,Raw,
Bence Duris,Hungary,M,2005,Sub-Juniors,83,81.4,202.5,215,-220,215,127.5,132.5,135,135,217.5,225,-232.5,225,575,12,SBD,Raw,
Otto Sjuls,Finland,M,2005,Sub-Juniors,83,81.42,225,235,237.5,237.5,152.5,157.5,160,160,-220,220,-230,220,617.5,5,SBD,Raw,
Fabrizio Di Felice,Italy,M,2005,Sub-Juniors,83,82.1,245,252.5,258.5,258.5,140,147.5,152.5,152.5,250,262.5,-272.5,262.5,673.5,3,SBD,Raw,
James Murphy,Ireland,M,2005,Sub-Juniors,93,91.76,185,200,205,205,-130,-132.5,132.5,132.5,260,275,-287.5,275,612.5,12,SBD,Raw,
Miguel Angel Miranda Ruiz,Spain,M,2005,Sub-Juniors,74,73.54,187.5,-197.5,197.5,197.5,125,130,-135,130,215,-230,-250,215,542.5,11,SBD,Raw,
Filip Šavel,Czechia,M,2005,Sub-Juniors,83,77.02,200,210,-215,210,110,115,120,120,225,240,-255,240,570,13,SBD,Raw,
Adam Daoudi,France,M,2005,Sub-Juniors,74,73.18,222.5,235,243,243,117.5,125,130,130,240,255,267.5,267.5,640.5,1,SBD,Raw,
Jesse Miettinen,Finland,M,2005,Sub-Juniors,120+,154.9,250,-265,-265,250,125,-132.5,132.5,132.5,180,190,200,200,582.5,5,SBD,Raw,
Adam Zatloukal,Czechia,M,2005,Sub-Juniors,93,92.64,240,-255,255,255,125,130,135,135,260,272.5,-285,272.5,662.5,5,SBD,Raw,
Mathéo Duvernet,France,M,2005,Sub-Juniors,66,65.2,195,202.5,205,205,112.5,115,117.5,117.5,220,257,258.5,258.5,581,3,SBD,Raw,
Benjamin Macintyre,Denmark,M,2005,Sub-Juniors,93,92.42,217.5,235,240,240,162.5,172.5,177.5,177.5,275,295,-312,295,712.5,2,SBD,Raw,
Julen Fajardo Solana,Spain,M,2005,Sub-Juniors,74,72.58,195,205,210,210,132.5,140,142.5,142.5,225,235,-242.5,235,587.5,8,SBD,Raw,
Fikri Zallali,Netherlands,M,2005,Sub-Juniors,83,82.38,237.5,247.5,-258,247.5,132.5,140,145,145,275,287.5,-301,287.5,680,2,SBD,Raw,
Jose Juan Garcia Garcia,Spain,M,2005,Sub-Juniors,66,65.18,180,187.5,-192.5,187.5,-115,-115,-115,,220,-230,-230,220,,DQ,SBD,Raw,
Marino Marković,Croatia,M,2005,Sub-Juniors,93,92.1,205,215,225,225,142.5,150,-155,150,240,252.5,-257.5,252.5,627.5,9,SBD,Raw,
Luka Grežina,Croatia,M,2005,Sub-Juniors,120,118.72,245,260,262.5,262.5,-125,125,130,130,255,-265,-277.5,255,647.5,4,SBD,Raw,
Cian Lynch,Ireland,M,2005,Sub-Juniors,74,73.36,-180,180,190,190,112.5,117.5,-120,117.5,245,-260,270,270,577.5,10,SBD,Raw,
Javier Gonzalez Ruiz,Spain,M,2005,Sub-Juniors,83,81.74,237.5,247.5,-258,247.5,135,140,-145,140,242.5,255,267.5,267.5,655,4,SBD,Raw,
Eduardo Alvarez Fernandez,Spain,M,2005,Sub-Juniors,83,82.4,182.5,190,197.5,197.5,97.5,102.5,107.5,107.5,227.5,240,250,250,555,14,SBD,Raw,
Max Pearson,UK,M,2005,Sub-Juniors,74,73.72,195,205,212.5,212.5,120,125,130,130,230,242.5,-247.5,242.5,585,9,SBD,Raw,
Jussi Waris,Finland,M,2005,Sub-Juniors,83,81.68,210,220,230,230,125,132.5,-140,132.5,230,-245,245,245,607.5,8,SBD,Raw,
Matěj Neuman,Czechia,M,2005,Sub-Juniors,59,58.88,140,152.5,157.5,157.5,85,95,-102.5,95,175,190,210,210,462.5,3,SBD,Raw,
Dario Pietro Dore,Italy,M,2005,Sub-Juniors,74,73.44,210,220,-225,220,135,140,-142.5,140,237.5,252.5,257.5,257.5,617.5,4,SBD,Raw,
Giorgi Gelashvili,Georgia,M,2006,Sub-Juniors,53,52.8,125,132.5,137.5,137.5,105,112.5,-120.5,112.5,150,-162.5,162.5,162.5,412.5,2,SBD,Raw,
Ákos Ujvári,Hungary,M,2006,Sub-Juniors,105,93.7,192.5,200,-210,200,107.5,115,-120,115,200,215,222.5,222.5,537.5,7,SBD,Raw,
Dániel Sajben,Hungary,M,2006,Sub-Juniors,59,58.3,140,147.5,-152.5,147.5,90,95,97.5,97.5,165,175,180,180,425,6,SBD,Raw,
Finn O'Farrell,UK,M,2006,Sub-Juniors,105,103.28,250,262.5,-267.5,262.5,130,137.5,142.5,142.5,245,260,267.5,267.5,672.5,4,SBD,Raw,
Pedro Joel Aragoneses Guerrero,Spain,M,2006,Sub-Juniors,105,104.6,-250,250,-262.5,250,125,-132.5,-132.5,125,285,300,-307.5,300,675,3,SBD,Raw,
Rytis Jankauskas,Lithuania,M,2006,Sub-Juniors,93,91.68,200,207.5,-212.5,207.5,110,115,-117.5,115,225,230,-235,230,552.5,15,SBD,Raw,
Liutauras Kazlauskas,Lithuania,M,2006,Sub-Juniors,120+,125.2,200,215,222.5,222.5,-120,120,132.5,132.5,235,250,257.5,257.5,612.5,4,SBD,Raw,
Georges Bastien,Belgium,M,2006,Sub-Juniors,83,81.82,177.5,190,-195,190,117.5,125,130,130,210,220,232.5,232.5,552.5,15,SBD,Raw,
Marek Mokroluský,Czechia,M,2006,Sub-Juniors,93,84.64,210,220,227.5,227.5,115,127.5,135,135,235,250,255,255,617.5,10,SBD,Raw,
Emin Ursol,Ukraine,M,2006,Sub-Juniors,120+,140.18,232.5,245,255,255,130,137.5,142.5,142.5,232.5,245,-257.5,245,642.5,3,SBD,Raw,
Pavel Benda,Czechia,M,2006,Sub-Juniors,120,118.1,250,-260,260,260,175,-185,-185,175,290,300,317.5,317.5,752.5,2,SBD,Raw,
Samuel Galhaut,France,M,2006,Sub-Juniors,93,91.38,240,247.5,-250,247.5,125,130,-132.5,130,270,285,-295,285,662.5,4,SBD,Raw,
Jakub Bellak,Slovakia,M,2006,Sub-Juniors,83,81.52,220,237.5,247.5,247.5,145,152.5,155,155,275,285,290.5,290.5,693,1,SBD,Raw,
Liam Biström,Finland,M,2006,Sub-Juniors,93,91.26,190,200,210,210,132.5,137.5,142.5,142.5,245,260,-272.5,260,612.5,11,SBD,Raw,
Kenzo Thiburce,France,M,2006,Sub-Juniors,59,58.36,157.5,165,170,170,97.5,102.5,-105,102.5,207.5,217.5,225,225,497.5,1,SBD,Raw,
Adriano Pavelin,Croatia,M,2006,Sub-Juniors,66,64.72,-160,160,-165,160,90,97.5,-102.5,97.5,182.5,192.5,205,205,462.5,6,SBD,Raw,
Stjepan Kovač #1,Croatia,M,2006,Sub-Juniors,74,71.78,170,180,190,190,112.5,122.5,127.5,127.5,210,-222.5,-222.5,210,527.5,12,SBD,Raw,
Dorje Weston,UK,M,2006,Sub-Juniors,66,65.16,-182.5,182.5,195,195,-135,135,140,140,185,197.5,207.5,207.5,542.5,4,SBD,Raw,
Alfie Bonsell,UK,M,2007,Sub-Juniors,59,58.42,162.5,170,175,175,97.5,102.5,107.5,107.5,182.5,195,-210,195,477.5,2,SBD,Raw,
Odysseas Markou,Greece,M,2007,Sub-Juniors,120+,128.44,222.5,232.5,240,240,137.5,145,150,150,247.5,257.5,-260,257.5,647.5,2,SBD,Raw,
Nikolai Galabov,Bulgaria,M,2007,Sub-Juniors,74,73.5,190,200,205,205,130,137.5,145,145,245,252.5,260,260,610,5,SBD,Raw,
Gabriel Hafsteinsson,Iceland,M,2000,Juniors,120,119.88,-230,-230,230,230,150,160,-170,160,245,-270,270,270,660,15,SBD,Raw,
Alexander Ottesen Andersen,Denmark,M,2000,Juniors,120+,146.08,280,292.5,-302.5,292.5,170,177.5,185,185,310,-330,330,330,807.5,4,SBD,Raw,
Dominik Sewioł,Poland,M,2001,Juniors,59,58.22,155,-160,-160,155,80,-85,,80,167.5,-175,,167.5,402.5,4,SBD,Raw,
Philip Merino Sanchez,Netherlands,M,2001,Juniors,93,92.7,240,250,-255,250,-155,155,162.5,162.5,260,-270,,260,672.5,14,SBD,Raw,
Kristiaan Ten,Belgium,M,2001,Juniors,120+,140.24,290,310,-325,310,160,170,172.5,172.5,295,-317.5,317.5,317.5,800,5,SBD,Raw,
Semih Aygün,Germany,M,2001,Juniors,93,92.48,260,275,285,285,175,185,192.5,192.5,295,312.5,330,330,807.5,3,SBD,Raw,
Frederik Danmark Sinkbaek,Denmark,M,2001,Juniors,120,114.84,270,285,295,295,187.5,197.5,202.5,202.5,310,330,-347.5,330,827.5,5,SBD,Raw,
Bjarne Dücker,Germany,M,2001,Juniors,105,104.8,290,305,315,315,192.5,202.5,207.5,207.5,292.5,307.5,-322.5,307.5,830,3,SBD,Raw,
Imad Hamich,Belgium,M,2002,Juniors,105,104.4,275,287.5,-295,287.5,185,-192.5,-192.5,185,295,-310,-317.5,295,767.5,9,SBD,Raw,
Marvin Kager,Austria,M,2002,Juniors,120,119.06,225,-237.5,240,240,172.5,180,-185,180,270,292.5,302.5,302.5,722.5,14,SBD,Raw,
Tuur Verstrepen,Belgium,M,2002,Juniors,83,81.08,230,240,247.5,247.5,-150,152.5,160,160,265,-287.5,287.5,287.5,695,10,SBD,Raw,
Pedro Oliveira,Iceland,M,2002,Juniors,83,81.94,185,200,207.5,207.5,117.5,-125,125,125,-225,235,-245,235,567.5,24,SBD,Raw,
Raffael Schnell,Austria,M,2002,Juniors,83,82.66,235,242.5,-250,242.5,165,172.5,175,175,260,275,-285,275,692.5,11,SBD,Raw,
Damian Rusek,Poland,M,2004,Juniors,83,81.8,215,225,-230,225,122.5,130,-135,130,280,-307.5,-307.5,280,635,20,SBD,Raw,
Michał Mizia,Poland,M,2005,Sub-Juniors,74,73.6,185,195,200,200,145,150,,150,235,250,257.5,257.5,607.5,6,SBD,Raw,
Kenji Borremans,Belgium,M,2005,Sub-Juniors,105,100.5,227.5,237.5,245,245,157.5,165,170,170,235,-247.5,-260,235,650,6,SBD,Raw,
Martin Brester,Germany,M,2005,Sub-Juniors,93,92.66,265,277.5,-285,277.5,-155,160,165,165,280,-300,300,300,742.5,1,SBD,Raw,
Simon Ceuppens,Belgium,M,2005,Sub-Juniors,74,73.6,-175,-175,175,175,115,122.5,-125,122.5,215,230,-242.5,230,527.5,13,SBD,Raw,
Márk Katona,Hungary,M,2005,Sub-Juniors,74,73.16,185,195,-205,195,110,115,120,120,195,-210,-210,195,510,14,SBD,Raw,
Hamza Demir,Austria,M,2005,Sub-Juniors,105,104.78,290,-311.5,-311.5,290,195,207.5,-214.5,207.5,320,-345,-345,320,817.5,1,SBD,Raw,
